# Blender v2.90.1 OBJ File: 'map.blend'
# www.blender.org
mtllib pregrada.mtl
o Плоскость_Плоскость.001
v 61.857864 51.319901 0.000001
v 61.363998 51.702106 0.000001
v 61.208023 51.311321 0.000001
v 66.275307 49.382668 0.000000
v 65.948090 49.583710 0.000000
v 66.036743 49.207161 0.000000
v 64.408630 49.734077 0.000000
v 64.358978 50.208332 0.000000
v 64.036354 49.998703 0.000000
v 65.019066 53.479641 0.000000
v 64.716904 53.640976 0.000000
v 64.837997 53.152534 0.000000
v 65.069702 53.265858 0.000000
v 65.132996 52.718487 0.000000
v 65.315636 53.134544 0.000000
v 66.619293 52.625221 -0.000000
v 65.557182 53.192322 -0.000000
v 66.391830 52.402576 -0.000000
v 66.255066 52.335690 0.000000
v 64.043350 51.812229 0.000000
v 65.138939 51.578403 0.000000
v 64.557388 52.183033 0.000000
v 65.696404 52.022602 0.000000
v 64.925774 52.355061 0.000000
v 62.974442 52.843864 0.000000
v 63.326138 52.392708 0.000000
v 63.478825 53.048622 0.000000
v 64.139236 52.287777 0.000000
v 63.712337 52.647408 0.000000
v 63.145538 53.410938 0.000000
v 62.644115 53.705002 0.000000
v 62.528427 53.266365 0.000000
v 62.074955 53.798199 0.000000
v 61.427013 53.472561 0.000000
v 61.914803 53.251621 0.000000
v 61.030479 53.025856 0.000000
v 61.498466 52.841820 0.000000
v 60.805367 52.382271 0.000001
v 61.231758 52.391640 0.000000
v 60.860401 51.720795 0.000001
v 61.216553 52.017868 0.000001
v 61.744263 50.959156 0.000001
v 62.139824 50.787460 0.000001
v 62.657845 50.919098 0.000000
v 62.381264 51.264305 0.000000
v 63.085819 51.375355 0.000000
v 62.627380 51.527946 0.000000
v 63.108582 51.837269 0.000000
v 62.726147 52.304840 0.000000
v 62.628262 51.948875 0.000000
v 62.237656 52.499817 0.000000
v 62.231400 52.266121 0.000000
v 61.828281 52.349674 0.000000
v 61.709904 52.004658 0.000000
v 61.874649 52.140556 0.000000
v 61.856056 51.834438 0.000000
v 65.595398 51.398067 0.000000
v 66.091270 51.824936 0.000000
v 65.946838 51.283134 0.000000
v 66.294914 51.472912 0.000000
v 66.375137 50.975437 0.000000
v 66.719368 50.633614 0.000000
v 66.661453 50.993752 0.000000
v 67.332115 50.227436 0.000000
v 67.002304 50.719585 0.000000
v 66.907112 50.270000 0.000000
v 67.145119 49.260628 0.000000
v 67.366753 49.774380 0.000000
v 66.941055 49.790977 0.000000
v 66.614067 49.030598 0.000000
v 66.685982 49.387253 0.000000
v 65.377121 50.191456 0.000000
v 65.562683 49.552460 0.000000
v 65.707718 49.922752 0.000000
v 66.169914 50.492420 0.000000
v 65.667702 50.563046 0.000000
v 65.958015 50.342197 0.000000
v 65.710594 50.224094 0.000000
v 66.614441 49.820515 0.000000
v 66.659698 50.151901 0.000000
v 66.415665 49.966156 0.000000
v 66.219666 50.215660 0.000000
v 66.422340 49.633377 0.000000
v 63.833961 51.173424 0.000000
v 64.531052 51.393806 0.000000
v 63.903419 50.662270 0.000000
v 64.312195 50.983917 0.000000
v 63.976353 50.280941 0.000000
v 64.259384 50.564384 0.000000
v 63.843552 49.785595 0.000000
v 63.401443 49.771454 0.000000
v 63.616634 49.656555 0.000000
v 63.858395 49.369446 0.000000
v 63.563915 49.434502 0.000000
v 63.755051 49.003235 0.000001
v 64.074890 49.108997 0.000000
v 64.305283 49.367870 0.000000
v 67.549301 48.502243 0.000000
v 68.153847 48.345695 0.000000
v 68.143127 48.766323 0.000000
v 62.725903 48.541039 0.000000
v 63.105877 48.485279 0.000000
v 62.875954 48.796379 0.000000
v 64.579933 48.954006 0.000000
v 64.812531 48.537743 0.000000
v 65.026382 48.857582 0.000000
v 65.495590 45.271152 -0.000000
v 65.836884 45.242008 -0.000000
v 65.533035 45.643150 0.000000
v 65.364777 45.447659 -0.000000
v 65.090820 45.925743 0.000000
v 65.086998 45.471378 -0.000000
v 63.688126 45.425491 -0.000000
v 64.887787 45.323051 -0.000000
v 63.809391 45.719780 0.000000
v 63.908707 45.835171 0.000000
v 65.734924 47.188179 0.000000
v 64.635887 46.971142 0.000000
v 65.408707 46.644756 0.000000
v 64.298691 46.343147 0.000000
v 65.137970 46.341431 0.000000
v 67.123970 46.661510 0.000000
v 66.622894 46.937473 0.000000
v 66.741165 46.274483 0.000000
v 65.834282 46.713348 0.000000
v 66.368385 46.551147 0.000000
v 67.190292 46.072910 0.000000
v 67.767036 46.000343 0.000000
v 67.700424 46.449062 0.000000
v 68.326843 46.139084 0.000000
v 68.793922 46.693794 0.000000
v 68.258537 46.704533 0.000000
v 68.982231 47.260647 0.000000
v 68.479599 47.245277 0.000000
v 68.935387 47.940857 0.000000
v 68.547218 47.764145 0.000000
v 68.624023 48.527061 0.000000
v 68.413841 48.113636 0.000000
v 67.511482 48.878555 0.000000
v 67.080269 48.880402 0.000000
v 66.656105 48.555199 0.000000
v 67.046371 48.346992 0.000000
v 66.442665 47.967171 0.000000
v 66.924133 48.007671 0.000000
v 66.603851 47.533695 0.000000
v 67.139648 47.254765 0.000000
v 67.089272 47.620491 0.000000
v 67.665443 47.268162 0.000000
v 67.579063 47.485397 0.000000
v 67.982468 47.567535 0.000000
v 67.955238 47.931278 0.000000
v 67.857414 47.741436 0.000000
v 67.753815 48.030090 0.000000
v 64.145294 46.956917 0.000000
v 63.857876 46.369125 0.000000
v 63.777012 46.923988 0.000000
v 63.531948 46.612358 0.000000
v 63.262096 47.037914 0.000000
v 62.810982 47.216339 0.000000
v 63.006187 46.908203 0.000000
v 62.087730 47.348053 0.000000
v 62.584854 47.025787 0.000000
v 62.495090 47.476486 0.000000
v 61.878426 48.310276 0.000000
v 61.877285 47.750759 0.000000
v 62.275051 47.903332 0.000000
v 62.275780 48.731037 0.000000
v 62.350296 48.374916 0.000000
v 63.870201 48.151859 0.000000
v 63.447750 48.665943 0.000000
v 63.460445 48.268459 0.000000
v 63.260273 47.562717 0.000000
v 63.749649 47.695801 0.000000
v 63.395782 47.784309 0.000000
v 63.576603 47.990391 0.000000
v 62.586853 48.004951 0.000000
v 62.675911 47.682564 0.000000
v 62.826954 47.949474 0.000000
v 63.105438 47.797447 0.000000
v 62.689621 48.252670 0.000000
v 65.675507 47.857796 0.000000
v 65.121765 47.380444 0.000000
v 65.410156 48.300171 0.000000
v 65.161293 47.843414 0.000000
v 65.192795 48.621861 0.000000
v 65.044434 48.249790 0.000000
v 65.119553 49.129440 0.000000
v 65.520279 49.316734 0.000000
v 65.277222 49.337490 0.000000
v 64.941849 49.506031 0.000001
v 65.238129 49.562344 0.000001
v 64.892448 49.883327 0.000001
v 64.640213 49.660034 0.000001
v 64.530533 49.331299 0.000000
v 82.593681 59.224072 0.000001
v 82.130646 58.805046 0.000001
v 82.487946 58.582832 0.000001
v 85.276917 63.232430 0.000000
v 85.021507 62.945625 0.000000
v 85.407776 62.966743 0.000000
v 84.602997 61.456535 0.000000
v 84.127396 61.490982 0.000000
v 84.277084 61.136543 0.000000
v 81.022957 62.715565 0.000000
v 80.811043 62.446449 0.000000
v 81.313164 62.479843 0.000000
v 81.242310 62.727848 0.000000
v 81.792282 62.693985 0.000000
v 81.414787 62.946884 0.000000
v 82.145241 64.140778 -0.000000
v 81.400352 63.194824 0.000000
v 82.324463 63.877735 -0.000000
v 82.366280 63.731346 -0.000000
v 82.492996 61.462067 0.000000
v 82.915680 62.499523 0.000000
v 82.218277 62.033257 0.000000
v 82.576340 63.126366 0.000000
v 82.113655 62.426140 0.000000
v 81.289604 60.591042 0.000000
v 81.795532 60.857998 0.000000
v 81.176651 61.123554 0.000000
v 82.041695 61.640015 0.000000
v 81.612656 61.282936 0.000000
v 80.761414 60.859108 0.000000
v 80.383820 60.417152 0.000000
v 80.795311 60.226196 0.000000
v 80.192078 59.873222 0.000000
v 80.398804 59.178143 0.000000
v 80.702011 59.619526 0.000000
v 80.768890 58.709293 0.000000
v 81.032288 59.137665 0.000000
v 81.362915 58.374603 0.000001
v 81.428604 58.796013 0.000001
v 82.023773 58.312565 0.000001
v 81.793892 58.715370 0.000001
v 82.928848 59.048859 0.000001
v 83.167374 59.408100 0.000001
v 83.128799 59.941185 0.000000
v 82.740372 59.729565 0.000000
v 82.754837 60.442669 0.000000
v 82.524071 60.018173 0.000000
v 82.304108 60.546238 0.000000
v 81.776619 60.251900 0.000000
v 82.109848 60.092995 0.000000
v 81.498848 59.805267 0.000000
v 81.727806 59.758049 0.000000
v 81.574722 59.375881 0.000000
v 81.893578 59.198723 0.000000
v 81.788742 59.384785 0.000000
v 82.086823 59.312698 0.000000
v 83.173409 62.917202 0.000000
v 82.840302 63.480362 0.000000
v 83.348297 63.242981 0.000000
v 83.222633 63.618984 0.000000
v 83.726463 63.610554 0.000000
v 84.123451 63.889374 0.000000
v 83.758736 63.895638 0.000000
v 84.630974 64.421227 0.000000
v 84.088531 64.183014 0.000000
v 84.514389 64.010315 0.000000
v 85.549881 64.067268 0.000000
v 85.083069 64.375717 0.000000
v 84.991928 63.959560 0.000000
v 85.683029 63.504063 0.000000
v 85.344559 63.637527 0.000000
v 84.322899 62.490318 0.000000
v 84.984558 62.560722 0.000000
v 84.645508 62.768562 0.000000
v 84.165909 63.323658 0.000000
v 84.008148 62.841667 0.000000
v 84.276566 63.088661 0.000000
v 84.349358 62.824341 0.000000
v 84.905464 63.643215 0.000000
v 84.587189 63.745995 0.000000
v 84.727165 63.473118 0.000000
v 84.447105 63.324005 0.000000
v 85.055939 63.421223 0.000000
v 83.085075 61.143696 0.000000
v 82.990601 61.868660 0.000000
v 83.600479 61.122265 0.000000
v 83.355659 61.581192 0.000000
v 83.988693 61.127064 0.000000
v 83.759384 61.455490 0.000000
v 84.453003 60.909294 0.000000
v 84.389244 60.471581 0.000000
v 84.540161 60.663235 0.000000
v 84.865280 60.850792 0.000000
v 84.749496 60.572323 0.000000
v 85.207642 60.684711 0.000001
v 85.159714 61.018158 0.000000
v 84.945358 61.290451 0.000000
v 86.367477 64.331917 0.000000
v 86.627815 64.899551 0.000000
v 86.211845 64.962906 0.000000
v 85.481827 59.590366 0.000000
v 85.603485 59.954632 0.000000
v 85.256821 59.782944 0.000000
v 85.401031 61.488113 0.000000
v 85.851692 61.643955 0.000000
v 85.574402 61.910675 0.000000
v 89.187477 61.742455 -0.000000
v 89.276131 62.073318 -0.000000
v 88.827850 61.844673 -0.000000
v 88.990738 61.644688 -0.000000
v 88.471954 61.458984 -0.000000
v 88.918579 61.375393 -0.000000
v 88.717972 59.990223 -0.000000
v 89.029594 61.153229 -0.000000
v 88.449562 60.161308 -0.000000
v 88.353424 60.279354 -0.000000
v 87.342323 62.314880 0.000000
v 87.362885 61.194809 0.000000
v 87.819977 61.898262 0.000000
v 87.921867 60.752518 0.000000
v 88.071014 61.578445 0.000000
v 88.104851 63.589783 0.000000
v 87.745140 63.144989 0.000000
v 88.418594 63.144932 0.000000
v 87.827225 62.329262 0.000000
v 88.080742 62.826565 0.000000
v 88.695946 63.551662 0.000000
v 88.868713 64.106682 0.000000
v 88.415276 64.119949 0.000000
v 88.830498 64.682159 0.000000
v 88.366478 65.239433 0.000000
v 88.261841 64.714264 0.000000
v 87.841530 65.524414 0.000000
v 87.768349 65.026886 0.000000
v 87.163673 65.597801 0.000000
v 87.269432 65.184624 0.000000
v 86.531876 65.394279 0.000000
v 86.901947 65.114731 0.000000
v 85.990379 64.360802 0.000000
v 85.912796 63.936623 0.000000
v 86.158417 63.461918 0.000000
v 86.431961 63.809532 0.000000
v 86.699799 63.148483 0.000000
v 86.744522 63.629578 0.000000
v 87.154846 63.230999 0.000000
v 87.523582 63.709457 0.000000
v 87.154694 63.724117 0.000000
v 87.602768 64.229424 0.000000
v 87.373741 64.182556 0.000000
v 87.363754 64.594116 0.000000
v 87.000885 64.631218 0.000000
v 87.170593 64.501564 0.000000
v 86.868225 64.450294 0.000000
v 87.290688 60.709351 0.000000
v 87.818832 60.323128 0.000000
v 87.258400 60.341011 0.000000
v 87.522125 60.045006 0.000000
v 87.055779 59.854118 0.000000
v 86.800865 59.441372 0.000000
v 87.138504 59.579403 0.000000
v 86.544128 58.752514 0.000000
v 86.948723 59.185287 0.000000
v 86.489265 59.176105 0.000000
v 85.560097 58.715530 0.000000
v 86.110710 58.616100 0.000000
v 86.030396 59.034481 0.000000
v 85.215698 59.180626 0.000000
v 85.579369 59.191414 0.000000
v 86.066010 60.648483 0.000000
v 85.485687 60.322929 0.000000
v 85.879227 60.265591 0.000000
v 86.538818 59.944530 0.000000
v 86.493790 60.449680 0.000000
v 86.344482 60.116871 0.000000
v 86.173370 60.331085 0.000000
v 85.985138 59.359291 0.000000
v 86.318161 59.390320 0.000000
v 86.081940 59.585907 0.000000
v 86.280533 59.833351 0.000000
v 85.759338 59.503979 0.000000
v 86.672684 62.374043 0.000000
v 87.045319 61.745041 0.000000
v 86.190567 62.190544 0.000000
v 86.596497 61.865303 0.000000
v 85.835693 62.033081 0.000000
v 86.175911 61.821655 0.000000
v 85.323135 62.050163 0.000000
v 85.209167 62.477562 0.000000
v 85.146027 62.241932 0.000000
v 84.921188 61.941391 0.000000
v 84.917801 62.242950 0.000001
v 84.541077 61.959049 0.000001
v 84.716583 61.671501 0.000001
v 85.020927 61.505775 0.000000
vt 0.328135 0.833830
vt 0.380656 0.910732
vt 0.321101 0.930489
vt 0.078892 0.159086
vt 0.105921 0.209577
vt 0.050653 0.193044
vt 0.114667 0.440073
vt 0.184824 0.451666
vt 0.150761 0.497835
vt 0.677639 0.382385
vt 0.698979 0.428794
vt 0.627342 0.406441
vt 0.646264 0.372954
vt 0.565343 0.358683
vt 0.628896 0.335181
vt 0.564627 0.136606
vt 0.639636 0.299736
vt 0.529469 0.168494
vt 0.518300 0.188260
vt 0.420785 0.512859
vt 0.395683 0.347699
vt 0.480536 0.439625
vt 0.466745 0.268649
vt 0.509408 0.386310
vt 0.564885 0.681116
vt 0.500841 0.624766
vt 0.599834 0.607848
vt 0.492425 0.502798
vt 0.542177 0.569533
vt 0.650815 0.660671
vt 0.690148 0.737917
vt 0.623827 0.751253
vt 0.698979 0.823469
vt 0.644764 0.917036
vt 0.616196 0.842467
vt 0.574755 0.972107
vt 0.551505 0.900812
vt 0.476957 0.999916
vt 0.482128 0.936526
vt 0.378976 0.985864
vt 0.426354 0.935479
vt 0.273429 0.847545
vt 0.251374 0.787140
vt 0.275559 0.711194
vt 0.324496 0.755424
vt 0.347269 0.651528
vt 0.365923 0.721123
vt 0.416231 0.652231
vt 0.482446 0.713303
vt 0.428590 0.724720
vt 0.507143 0.787746
vt 0.472299 0.786608
vt 0.481166 0.847356
vt 0.428758 0.861921
vt 0.450448 0.838601
vt 0.404714 0.838657
vt 0.372881 0.278152
vt 0.440819 0.208118
vt 0.358886 0.224819
vt 0.390220 0.174685
vt 0.316877 0.158336
vt 0.269043 0.104065
vt 0.322140 0.115877
vt 0.214007 0.009253
vt 0.284346 0.062709
vt 0.216578 0.072897
vt 0.068431 0.028525
vt 0.146871 0.000084
vt 0.145571 0.063601
vt 0.029484 0.105539
vt 0.083213 0.097993
vt 0.191331 0.299956
vt 0.097855 0.266672
vt 0.154261 0.248362
vt 0.243157 0.184607
vt 0.249220 0.259991
vt 0.218917 0.214819
vt 0.199145 0.250604
vt 0.147074 0.112482
vt 0.196806 0.108681
vt 0.166994 0.143362
vt 0.202398 0.174749
vt 0.117515 0.139420
vt 0.323837 0.538370
vt 0.362819 0.436554
vt 0.248362 0.523502
vt 0.299864 0.465501
vt 0.192244 0.509267
vt 0.236944 0.469646
vt 0.117330 0.524648
vt 0.111308 0.590335
vt 0.096110 0.557284
vt 0.055513 0.518752
vt 0.062588 0.563164
vt 0.000084 0.530892
vt 0.018661 0.484217
vt 0.059237 0.452214
vt 0.328135 0.833830
vt 0.380656 0.910732
vt 0.321101 0.930489
vt 0.078892 0.159086
vt 0.105921 0.209577
vt 0.050653 0.193044
vt 0.114667 0.440073
vt 0.184824 0.451666
vt 0.150761 0.497835
vt 0.677639 0.382385
vt 0.698979 0.428794
vt 0.627342 0.406441
vt 0.646264 0.372954
vt 0.565343 0.358683
vt 0.628896 0.335181
vt 0.564627 0.136606
vt 0.639636 0.299736
vt 0.529469 0.168494
vt 0.518300 0.188260
vt 0.420785 0.512859
vt 0.395683 0.347699
vt 0.480536 0.439625
vt 0.466745 0.268649
vt 0.509408 0.386310
vt 0.564885 0.681116
vt 0.500841 0.624766
vt 0.599834 0.607848
vt 0.492425 0.502798
vt 0.542177 0.569533
vt 0.650815 0.660671
vt 0.690148 0.737917
vt 0.623827 0.751253
vt 0.698979 0.823469
vt 0.644764 0.917036
vt 0.616196 0.842467
vt 0.574755 0.972107
vt 0.551505 0.900812
vt 0.476957 0.999916
vt 0.482128 0.936526
vt 0.378976 0.985864
vt 0.426354 0.935479
vt 0.273429 0.847545
vt 0.251374 0.787140
vt 0.275559 0.711194
vt 0.324496 0.755424
vt 0.347269 0.651528
vt 0.365923 0.721123
vt 0.416231 0.652231
vt 0.482446 0.713303
vt 0.428590 0.724720
vt 0.507143 0.787746
vt 0.472299 0.786608
vt 0.481166 0.847356
vt 0.428758 0.861921
vt 0.450448 0.838601
vt 0.404714 0.838657
vt 0.372881 0.278152
vt 0.440819 0.208118
vt 0.358886 0.224819
vt 0.390220 0.174685
vt 0.316877 0.158336
vt 0.269043 0.104065
vt 0.322140 0.115877
vt 0.214007 0.009253
vt 0.284346 0.062709
vt 0.216578 0.072897
vt 0.068431 0.028525
vt 0.146871 0.000084
vt 0.145571 0.063601
vt 0.029484 0.105539
vt 0.083213 0.097993
vt 0.191331 0.299956
vt 0.097855 0.266672
vt 0.154261 0.248362
vt 0.243157 0.184607
vt 0.249220 0.259991
vt 0.218917 0.214819
vt 0.199145 0.250604
vt 0.147074 0.112482
vt 0.196806 0.108681
vt 0.166994 0.143362
vt 0.202398 0.174749
vt 0.117515 0.139420
vt 0.323837 0.538370
vt 0.362819 0.436554
vt 0.248362 0.523502
vt 0.299864 0.465501
vt 0.192244 0.509267
vt 0.236944 0.469646
vt 0.117330 0.524648
vt 0.111308 0.590335
vt 0.096110 0.557284
vt 0.055513 0.518752
vt 0.062588 0.563164
vt 0.000084 0.530892
vt 0.018661 0.484217
vt 0.059237 0.452214
vt 0.328135 0.833830
vt 0.380656 0.910732
vt 0.321101 0.930489
vt 0.078892 0.159086
vt 0.105921 0.209577
vt 0.050653 0.193044
vt 0.114667 0.440073
vt 0.184824 0.451666
vt 0.150761 0.497835
vt 0.677639 0.382385
vt 0.698979 0.428794
vt 0.627342 0.406441
vt 0.646264 0.372954
vt 0.565343 0.358683
vt 0.628896 0.335181
vt 0.564627 0.136606
vt 0.639636 0.299736
vt 0.529469 0.168494
vt 0.518300 0.188260
vt 0.420785 0.512859
vt 0.395683 0.347699
vt 0.480536 0.439625
vt 0.466745 0.268649
vt 0.509408 0.386310
vt 0.564885 0.681116
vt 0.500841 0.624766
vt 0.599834 0.607848
vt 0.492425 0.502798
vt 0.542177 0.569533
vt 0.650815 0.660671
vt 0.690148 0.737917
vt 0.623827 0.751253
vt 0.698979 0.823469
vt 0.644764 0.917036
vt 0.616196 0.842467
vt 0.574755 0.972107
vt 0.551505 0.900812
vt 0.476957 0.999916
vt 0.482128 0.936526
vt 0.378976 0.985864
vt 0.426354 0.935479
vt 0.273429 0.847545
vt 0.251374 0.787140
vt 0.275559 0.711194
vt 0.324496 0.755424
vt 0.347269 0.651528
vt 0.365923 0.721123
vt 0.416231 0.652231
vt 0.482446 0.713303
vt 0.428590 0.724720
vt 0.507143 0.787746
vt 0.472299 0.786608
vt 0.481166 0.847356
vt 0.428758 0.861921
vt 0.450448 0.838601
vt 0.404714 0.838657
vt 0.372881 0.278152
vt 0.440819 0.208118
vt 0.358886 0.224819
vt 0.390220 0.174685
vt 0.316877 0.158336
vt 0.269043 0.104065
vt 0.322140 0.115877
vt 0.214007 0.009253
vt 0.284346 0.062709
vt 0.216578 0.072897
vt 0.068431 0.028525
vt 0.146871 0.000084
vt 0.145571 0.063601
vt 0.029484 0.105539
vt 0.083213 0.097993
vt 0.191331 0.299956
vt 0.097855 0.266672
vt 0.154261 0.248362
vt 0.243157 0.184607
vt 0.249220 0.259991
vt 0.218917 0.214819
vt 0.199145 0.250604
vt 0.147074 0.112482
vt 0.196806 0.108681
vt 0.166994 0.143362
vt 0.202398 0.174749
vt 0.117515 0.139420
vt 0.323837 0.538370
vt 0.362819 0.436554
vt 0.248362 0.523502
vt 0.299864 0.465501
vt 0.192244 0.509267
vt 0.236944 0.469646
vt 0.117330 0.524648
vt 0.111308 0.590335
vt 0.096110 0.557284
vt 0.055513 0.518752
vt 0.062588 0.563164
vt 0.000084 0.530892
vt 0.018661 0.484217
vt 0.059237 0.452214
vt 0.328135 0.833830
vt 0.380656 0.910732
vt 0.321101 0.930489
vt 0.078892 0.159086
vt 0.105921 0.209577
vt 0.050653 0.193044
vt 0.114667 0.440073
vt 0.184824 0.451666
vt 0.150761 0.497835
vt 0.677639 0.382385
vt 0.698979 0.428794
vt 0.627342 0.406441
vt 0.646264 0.372954
vt 0.565343 0.358683
vt 0.628896 0.335181
vt 0.564627 0.136606
vt 0.639636 0.299736
vt 0.529469 0.168494
vt 0.518300 0.188260
vt 0.420785 0.512859
vt 0.395683 0.347699
vt 0.480536 0.439625
vt 0.466745 0.268649
vt 0.509408 0.386310
vt 0.564885 0.681116
vt 0.500841 0.624766
vt 0.599834 0.607848
vt 0.492425 0.502798
vt 0.542177 0.569533
vt 0.650815 0.660671
vt 0.690148 0.737917
vt 0.623827 0.751253
vt 0.698979 0.823469
vt 0.644764 0.917036
vt 0.616196 0.842467
vt 0.574755 0.972107
vt 0.551505 0.900812
vt 0.476957 0.999916
vt 0.482128 0.936526
vt 0.378976 0.985864
vt 0.426354 0.935479
vt 0.273429 0.847545
vt 0.251374 0.787140
vt 0.275559 0.711194
vt 0.324496 0.755424
vt 0.347269 0.651528
vt 0.365923 0.721123
vt 0.416231 0.652231
vt 0.482446 0.713303
vt 0.428590 0.724720
vt 0.507143 0.787746
vt 0.472299 0.786608
vt 0.481166 0.847356
vt 0.428758 0.861921
vt 0.450448 0.838601
vt 0.404714 0.838657
vt 0.372881 0.278152
vt 0.440819 0.208118
vt 0.358886 0.224819
vt 0.390220 0.174685
vt 0.316877 0.158336
vt 0.269043 0.104065
vt 0.322140 0.115877
vt 0.214007 0.009253
vt 0.284346 0.062709
vt 0.216578 0.072897
vt 0.068431 0.028525
vt 0.146871 0.000084
vt 0.145571 0.063601
vt 0.029484 0.105539
vt 0.083213 0.097993
vt 0.191331 0.299956
vt 0.097855 0.266672
vt 0.154261 0.248362
vt 0.243157 0.184607
vt 0.249220 0.259991
vt 0.218917 0.214819
vt 0.199145 0.250604
vt 0.147074 0.112482
vt 0.196806 0.108681
vt 0.166994 0.143362
vt 0.202398 0.174749
vt 0.117515 0.139420
vt 0.323837 0.538370
vt 0.362819 0.436554
vt 0.248362 0.523502
vt 0.299864 0.465501
vt 0.192244 0.509267
vt 0.236944 0.469646
vt 0.117330 0.524648
vt 0.111308 0.590335
vt 0.096110 0.557284
vt 0.055513 0.518752
vt 0.062588 0.563164
vt 0.000084 0.530892
vt 0.018661 0.484217
vt 0.059237 0.452214
vn 0.0000 0.0000 1.0000
usemtl None.030
s 1
f 1/1/1 2/2/1 3/3/1
f 4/4/1 5/5/1 6/6/1
f 7/7/1 8/8/1 9/9/1
f 10/10/1 11/11/1 12/12/1
f 10/10/1 12/12/1 13/13/1
f 12/12/1 14/14/1 13/13/1
f 15/15/1 13/13/1 14/14/1
f 16/16/1 17/17/1 18/18/1
f 17/17/1 15/15/1 14/14/1
f 19/19/1 18/18/1 17/17/1
f 20/20/1 21/21/1 22/22/1
f 21/21/1 23/23/1 24/24/1
f 23/23/1 19/19/1 17/17/1
f 23/23/1 17/17/1 14/14/1
f 14/14/1 24/24/1 23/23/1
f 21/21/1 24/24/1 22/22/1
f 25/25/1 26/26/1 27/27/1
f 26/26/1 20/20/1 28/28/1
f 29/29/1 26/26/1 28/28/1
f 20/20/1 22/22/1 28/28/1
f 29/29/1 27/27/1 26/26/1
f 27/27/1 30/30/1 25/25/1
f 30/30/1 31/31/1 32/32/1
f 25/25/1 30/30/1 32/32/1
f 31/31/1 33/33/1 32/32/1
f 33/33/1 34/34/1 35/35/1
f 32/32/1 33/33/1 35/35/1
f 34/34/1 36/36/1 37/37/1
f 36/36/1 38/38/1 39/39/1
f 37/37/1 36/36/1 39/39/1
f 38/38/1 40/40/1 41/41/1
f 40/40/1 3/3/1 2/2/1
f 41/41/1 40/40/1 2/2/1
f 3/3/1 42/42/1 1/1/1
f 42/42/1 43/43/1 1/1/1
f 43/43/1 44/44/1 45/45/1
f 44/44/1 46/46/1 47/47/1
f 45/45/1 44/44/1 47/47/1
f 46/46/1 48/48/1 47/47/1
f 48/48/1 49/49/1 50/50/1
f 47/47/1 48/48/1 50/50/1
f 49/49/1 51/51/1 52/52/1
f 51/51/1 53/53/1 52/52/1
f 53/53/1 54/54/1 55/55/1
f 54/54/1 56/56/1 55/55/1
f 53/53/1 55/55/1 52/52/1
f 49/49/1 52/52/1 50/50/1
f 35/35/1 34/34/1 37/37/1
f 41/41/1 39/39/1 38/38/1
f 43/43/1 45/45/1 1/1/1
f 23/23/1 21/21/1 57/57/1
f 23/23/1 57/57/1 58/58/1
f 57/57/1 59/59/1 58/58/1
f 58/58/1 19/19/1 23/23/1
f 60/60/1 58/58/1 59/59/1
f 59/59/1 61/61/1 60/60/1
f 61/61/1 62/62/1 63/63/1
f 63/63/1 60/60/1 61/61/1
f 64/64/1 65/65/1 66/66/1
f 65/65/1 63/63/1 62/62/1
f 67/67/1 68/68/1 69/69/1
f 68/68/1 64/64/1 69/69/1
f 6/6/1 70/70/1 4/4/1
f 70/70/1 67/67/1 71/71/1
f 72/72/1 73/73/1 74/74/1
f 73/73/1 6/6/1 5/5/1
f 75/75/1 76/76/1 77/77/1
f 76/76/1 72/72/1 78/78/1
f 77/77/1 76/76/1 78/78/1
f 79/79/1 80/80/1 81/81/1
f 80/80/1 75/75/1 82/82/1
f 81/81/1 83/83/1 79/79/1
f 82/82/1 81/81/1 80/80/1
f 65/65/1 62/62/1 66/66/1
f 77/77/1 82/82/1 75/75/1
f 64/64/1 66/66/1 69/69/1
f 67/67/1 69/69/1 71/71/1
f 74/74/1 78/78/1 72/72/1
f 5/5/1 74/74/1 73/73/1
f 70/70/1 71/71/1 4/4/1
f 20/20/1 84/84/1 85/85/1
f 84/84/1 86/86/1 87/87/1
f 86/86/1 88/88/1 89/89/1
f 88/88/1 9/9/1 8/8/1
f 89/89/1 88/88/1 8/8/1
f 90/90/1 91/91/1 92/92/1
f 84/84/1 87/87/1 85/85/1
f 87/87/1 86/86/1 89/89/1
f 90/90/1 92/92/1 93/93/1
f 92/92/1 94/94/1 93/93/1
f 9/9/1 90/90/1 7/7/1
f 93/93/1 95/95/1 96/96/1
f 90/90/1 93/93/1 97/97/1
f 85/85/1 21/21/1 20/20/1
f 90/90/1 97/97/1 7/7/1
f 93/93/1 96/96/1 97/97/1
usemtl None.042
f 98/98/1 99/99/1 100/100/1
f 101/101/1 102/102/1 103/103/1
f 104/104/1 105/105/1 106/106/1
f 107/107/1 108/108/1 109/109/1
f 107/107/1 109/109/1 110/110/1
f 109/109/1 111/111/1 110/110/1
f 112/112/1 110/110/1 111/111/1
f 113/113/1 114/114/1 115/115/1
f 114/114/1 112/112/1 111/111/1
f 116/116/1 115/115/1 114/114/1
f 117/117/1 118/118/1 119/119/1
f 118/118/1 120/120/1 121/121/1
f 120/120/1 116/116/1 114/114/1
f 120/120/1 114/114/1 111/111/1
f 111/111/1 121/121/1 120/120/1
f 118/118/1 121/121/1 119/119/1
f 122/122/1 123/123/1 124/124/1
f 123/123/1 117/117/1 125/125/1
f 126/126/1 123/123/1 125/125/1
f 117/117/1 119/119/1 125/125/1
f 126/126/1 124/124/1 123/123/1
f 124/124/1 127/127/1 122/122/1
f 127/127/1 128/128/1 129/129/1
f 122/122/1 127/127/1 129/129/1
f 128/128/1 130/130/1 129/129/1
f 130/130/1 131/131/1 132/132/1
f 129/129/1 130/130/1 132/132/1
f 131/131/1 133/133/1 134/134/1
f 133/133/1 135/135/1 136/136/1
f 134/134/1 133/133/1 136/136/1
f 135/135/1 137/137/1 138/138/1
f 137/137/1 100/100/1 99/99/1
f 138/138/1 137/137/1 99/99/1
f 100/100/1 139/139/1 98/98/1
f 139/139/1 140/140/1 98/98/1
f 140/140/1 141/141/1 142/142/1
f 141/141/1 143/143/1 144/144/1
f 142/142/1 141/141/1 144/144/1
f 143/143/1 145/145/1 144/144/1
f 145/145/1 146/146/1 147/147/1
f 144/144/1 145/145/1 147/147/1
f 146/146/1 148/148/1 149/149/1
f 148/148/1 150/150/1 149/149/1
f 150/150/1 151/151/1 152/152/1
f 151/151/1 153/153/1 152/152/1
f 150/150/1 152/152/1 149/149/1
f 146/146/1 149/149/1 147/147/1
f 132/132/1 131/131/1 134/134/1
f 138/138/1 136/136/1 135/135/1
f 140/140/1 142/142/1 98/98/1
f 120/120/1 118/118/1 154/154/1
f 120/120/1 154/154/1 155/155/1
f 154/154/1 156/156/1 155/155/1
f 155/155/1 116/116/1 120/120/1
f 157/157/1 155/155/1 156/156/1
f 156/156/1 158/158/1 157/157/1
f 158/158/1 159/159/1 160/160/1
f 160/160/1 157/157/1 158/158/1
f 161/161/1 162/162/1 163/163/1
f 162/162/1 160/160/1 159/159/1
f 164/164/1 165/165/1 166/166/1
f 165/165/1 161/161/1 166/166/1
f 103/103/1 167/167/1 101/101/1
f 167/167/1 164/164/1 168/168/1
f 169/169/1 170/170/1 171/171/1
f 170/170/1 103/103/1 102/102/1
f 172/172/1 173/173/1 174/174/1
f 173/173/1 169/169/1 175/175/1
f 174/174/1 173/173/1 175/175/1
f 176/176/1 177/177/1 178/178/1
f 177/177/1 172/172/1 179/179/1
f 178/178/1 180/180/1 176/176/1
f 179/179/1 178/178/1 177/177/1
f 162/162/1 159/159/1 163/163/1
f 174/174/1 179/179/1 172/172/1
f 161/161/1 163/163/1 166/166/1
f 164/164/1 166/166/1 168/168/1
f 171/171/1 175/175/1 169/169/1
f 102/102/1 171/171/1 170/170/1
f 167/167/1 168/168/1 101/101/1
f 117/117/1 181/181/1 182/182/1
f 181/181/1 183/183/1 184/184/1
f 183/183/1 185/185/1 186/186/1
f 185/185/1 106/106/1 105/105/1
f 186/186/1 185/185/1 105/105/1
f 187/187/1 188/188/1 189/189/1
f 181/181/1 184/184/1 182/182/1
f 184/184/1 183/183/1 186/186/1
f 187/187/1 189/189/1 190/190/1
f 189/189/1 191/191/1 190/190/1
f 106/106/1 187/187/1 104/104/1
f 190/190/1 192/192/1 193/193/1
f 187/187/1 190/190/1 194/194/1
f 182/182/1 118/118/1 117/117/1
f 187/187/1 194/194/1 104/104/1
f 190/190/1 193/193/1 194/194/1
usemtl None.046
f 195/195/1 196/196/1 197/197/1
f 198/198/1 199/199/1 200/200/1
f 201/201/1 202/202/1 203/203/1
f 204/204/1 205/205/1 206/206/1
f 204/204/1 206/206/1 207/207/1
f 206/206/1 208/208/1 207/207/1
f 209/209/1 207/207/1 208/208/1
f 210/210/1 211/211/1 212/212/1
f 211/211/1 209/209/1 208/208/1
f 213/213/1 212/212/1 211/211/1
f 214/214/1 215/215/1 216/216/1
f 215/215/1 217/217/1 218/218/1
f 217/217/1 213/213/1 211/211/1
f 217/217/1 211/211/1 208/208/1
f 208/208/1 218/218/1 217/217/1
f 215/215/1 218/218/1 216/216/1
f 219/219/1 220/220/1 221/221/1
f 220/220/1 214/214/1 222/222/1
f 223/223/1 220/220/1 222/222/1
f 214/214/1 216/216/1 222/222/1
f 223/223/1 221/221/1 220/220/1
f 221/221/1 224/224/1 219/219/1
f 224/224/1 225/225/1 226/226/1
f 219/219/1 224/224/1 226/226/1
f 225/225/1 227/227/1 226/226/1
f 227/227/1 228/228/1 229/229/1
f 226/226/1 227/227/1 229/229/1
f 228/228/1 230/230/1 231/231/1
f 230/230/1 232/232/1 233/233/1
f 231/231/1 230/230/1 233/233/1
f 232/232/1 234/234/1 235/235/1
f 234/234/1 197/197/1 196/196/1
f 235/235/1 234/234/1 196/196/1
f 197/197/1 236/236/1 195/195/1
f 236/236/1 237/237/1 195/195/1
f 237/237/1 238/238/1 239/239/1
f 238/238/1 240/240/1 241/241/1
f 239/239/1 238/238/1 241/241/1
f 240/240/1 242/242/1 241/241/1
f 242/242/1 243/243/1 244/244/1
f 241/241/1 242/242/1 244/244/1
f 243/243/1 245/245/1 246/246/1
f 245/245/1 247/247/1 246/246/1
f 247/247/1 248/248/1 249/249/1
f 248/248/1 250/250/1 249/249/1
f 247/247/1 249/249/1 246/246/1
f 243/243/1 246/246/1 244/244/1
f 229/229/1 228/228/1 231/231/1
f 235/235/1 233/233/1 232/232/1
f 237/237/1 239/239/1 195/195/1
f 217/217/1 215/215/1 251/251/1
f 217/217/1 251/251/1 252/252/1
f 251/251/1 253/253/1 252/252/1
f 252/252/1 213/213/1 217/217/1
f 254/254/1 252/252/1 253/253/1
f 253/253/1 255/255/1 254/254/1
f 255/255/1 256/256/1 257/257/1
f 257/257/1 254/254/1 255/255/1
f 258/258/1 259/259/1 260/260/1
f 259/259/1 257/257/1 256/256/1
f 261/261/1 262/262/1 263/263/1
f 262/262/1 258/258/1 263/263/1
f 200/200/1 264/264/1 198/198/1
f 264/264/1 261/261/1 265/265/1
f 266/266/1 267/267/1 268/268/1
f 267/267/1 200/200/1 199/199/1
f 269/269/1 270/270/1 271/271/1
f 270/270/1 266/266/1 272/272/1
f 271/271/1 270/270/1 272/272/1
f 273/273/1 274/274/1 275/275/1
f 274/274/1 269/269/1 276/276/1
f 275/275/1 277/277/1 273/273/1
f 276/276/1 275/275/1 274/274/1
f 259/259/1 256/256/1 260/260/1
f 271/271/1 276/276/1 269/269/1
f 258/258/1 260/260/1 263/263/1
f 261/261/1 263/263/1 265/265/1
f 268/268/1 272/272/1 266/266/1
f 199/199/1 268/268/1 267/267/1
f 264/264/1 265/265/1 198/198/1
f 214/214/1 278/278/1 279/279/1
f 278/278/1 280/280/1 281/281/1
f 280/280/1 282/282/1 283/283/1
f 282/282/1 203/203/1 202/202/1
f 283/283/1 282/282/1 202/202/1
f 284/284/1 285/285/1 286/286/1
f 278/278/1 281/281/1 279/279/1
f 281/281/1 280/280/1 283/283/1
f 284/284/1 286/286/1 287/287/1
f 286/286/1 288/288/1 287/287/1
f 203/203/1 284/284/1 201/201/1
f 287/287/1 289/289/1 290/290/1
f 284/284/1 287/287/1 291/291/1
f 279/279/1 215/215/1 214/214/1
f 284/284/1 291/291/1 201/201/1
f 287/287/1 290/290/1 291/291/1
usemtl None.044
f 292/292/1 293/293/1 294/294/1
f 295/295/1 296/296/1 297/297/1
f 298/298/1 299/299/1 300/300/1
f 301/301/1 302/302/1 303/303/1
f 301/301/1 303/303/1 304/304/1
f 303/303/1 305/305/1 304/304/1
f 306/306/1 304/304/1 305/305/1
f 307/307/1 308/308/1 309/309/1
f 308/308/1 306/306/1 305/305/1
f 310/310/1 309/309/1 308/308/1
f 311/311/1 312/312/1 313/313/1
f 312/312/1 314/314/1 315/315/1
f 314/314/1 310/310/1 308/308/1
f 314/314/1 308/308/1 305/305/1
f 305/305/1 315/315/1 314/314/1
f 312/312/1 315/315/1 313/313/1
f 316/316/1 317/317/1 318/318/1
f 317/317/1 311/311/1 319/319/1
f 320/320/1 317/317/1 319/319/1
f 311/311/1 313/313/1 319/319/1
f 320/320/1 318/318/1 317/317/1
f 318/318/1 321/321/1 316/316/1
f 321/321/1 322/322/1 323/323/1
f 316/316/1 321/321/1 323/323/1
f 322/322/1 324/324/1 323/323/1
f 324/324/1 325/325/1 326/326/1
f 323/323/1 324/324/1 326/326/1
f 325/325/1 327/327/1 328/328/1
f 327/327/1 329/329/1 330/330/1
f 328/328/1 327/327/1 330/330/1
f 329/329/1 331/331/1 332/332/1
f 331/331/1 294/294/1 293/293/1
f 332/332/1 331/331/1 293/293/1
f 294/294/1 333/333/1 292/292/1
f 333/333/1 334/334/1 292/292/1
f 334/334/1 335/335/1 336/336/1
f 335/335/1 337/337/1 338/338/1
f 336/336/1 335/335/1 338/338/1
f 337/337/1 339/339/1 338/338/1
f 339/339/1 340/340/1 341/341/1
f 338/338/1 339/339/1 341/341/1
f 340/340/1 342/342/1 343/343/1
f 342/342/1 344/344/1 343/343/1
f 344/344/1 345/345/1 346/346/1
f 345/345/1 347/347/1 346/346/1
f 344/344/1 346/346/1 343/343/1
f 340/340/1 343/343/1 341/341/1
f 326/326/1 325/325/1 328/328/1
f 332/332/1 330/330/1 329/329/1
f 334/334/1 336/336/1 292/292/1
f 314/314/1 312/312/1 348/348/1
f 314/314/1 348/348/1 349/349/1
f 348/348/1 350/350/1 349/349/1
f 349/349/1 310/310/1 314/314/1
f 351/351/1 349/349/1 350/350/1
f 350/350/1 352/352/1 351/351/1
f 352/352/1 353/353/1 354/354/1
f 354/354/1 351/351/1 352/352/1
f 355/355/1 356/356/1 357/357/1
f 356/356/1 354/354/1 353/353/1
f 358/358/1 359/359/1 360/360/1
f 359/359/1 355/355/1 360/360/1
f 297/297/1 361/361/1 295/295/1
f 361/361/1 358/358/1 362/362/1
f 363/363/1 364/364/1 365/365/1
f 364/364/1 297/297/1 296/296/1
f 366/366/1 367/367/1 368/368/1
f 367/367/1 363/363/1 369/369/1
f 368/368/1 367/367/1 369/369/1
f 370/370/1 371/371/1 372/372/1
f 371/371/1 366/366/1 373/373/1
f 372/372/1 374/374/1 370/370/1
f 373/373/1 372/372/1 371/371/1
f 356/356/1 353/353/1 357/357/1
f 368/368/1 373/373/1 366/366/1
f 355/355/1 357/357/1 360/360/1
f 358/358/1 360/360/1 362/362/1
f 365/365/1 369/369/1 363/363/1
f 296/296/1 365/365/1 364/364/1
f 361/361/1 362/362/1 295/295/1
f 311/311/1 375/375/1 376/376/1
f 375/375/1 377/377/1 378/378/1
f 377/377/1 379/379/1 380/380/1
f 379/379/1 300/300/1 299/299/1
f 380/380/1 379/379/1 299/299/1
f 381/381/1 382/382/1 383/383/1
f 375/375/1 378/378/1 376/376/1
f 378/378/1 377/377/1 380/380/1
f 381/381/1 383/383/1 384/384/1
f 383/383/1 385/385/1 384/384/1
f 300/300/1 381/381/1 298/298/1
f 384/384/1 386/386/1 387/387/1
f 381/381/1 384/384/1 388/388/1
f 376/376/1 312/312/1 311/311/1
f 381/381/1 388/388/1 298/298/1
f 384/384/1 387/387/1 388/388/1
